{
  "data": [
    {
      "id": "929160387114550_899464033417519",
      "from": {
        "id": "929160387114550",
        "name": "Hayato Takeuchi"
      },
      "message": "家でゴロゴロしながらいじれるように、レノボとかasusあたりで3~4万のノートパソコン買おうかなーと思ってたけど様々な脳内会議の末、気づいたらsurface pro2を購入。\nタブレットとしてwindowsを使うのと、そもそもwindows8.1自体にまだ慣れない。\n\n関係ないけど二枚目は実家のこてつくん。やはり可愛い。",
      "story": "Hayato Takeuchi added 2 new photos.",
      "story_tags": {
        "0": [
          {
            "id": "929160387114550",
            "name": "Hayato Takeuchi",
            "type": "user",
            "offset": 0,
            "length": 15
          }
        ]
      },
      "picture": "https://fbcdn-sphotos-b-a.akamaihd.net/hphotos-ak-xfp1/v/t1.0-9/s130x130/10407092_899441910086398_4833638653475268628_n.jpg?oh=be0e27e85b0672460292159fa880c644&oe=55B52B8A&__gda__=1434159034_720c2732eec8564809a1a0f170a794ac",
      "link": "https://www.facebook.com/photo.php?fbid=899441910086398&set=a.621356744561584.1073741826.100000617918986&type=1",
      "icon": "https://www.facebook.com/images/icons/photo.gif?access_token=CAACEdEose0cBANfOty8ZADaiPWVveZCMtn0LqKVZA1AaSZBrqe7wc9YFtuuZBRqUPUN5SeJLwI0BZCmF9ZArmXPSKUzpmTyca28C9ZC6y1ue8AMOkLK4WbRtGNYfZCZBkgJdPU3yPjebCTxjZBiJh51mEbRWTYZB2UcMCkOROFIJdIEJuuTsvPZBJyvFHy09QE1uFrBVmdzzRlJSeW7N1y0icVmTHgPIwESnQQwIZD&format=json&method=get&pretty=0&suppress_http_code=1",
      "actions": [
        {
          "name": "Comment",
          "link": "https://www.facebook.com/929160387114550/posts/899464033417519"
        },
        {
          "name": "Like",
          "link": "https://www.facebook.com/929160387114550/posts/899464033417519"
        }
      ],
      "privacy": {
        "value": "ALL_FRIENDS",
        "description": "Your friends",
        "friends": "",
        "allow": "",
        "deny": ""
      },
      "type": "photo",
      "status_type": "added_photos",
      "object_id": "899441910086398",
      "created_time": "2015-01-17T17:16:21+0000",
      "updated_time": "2015-01-19T15:01:03+0000",
      "subscribed": true
    },
    {
      "id": "929160387114550_884126954951227",
      "from": {
        "id": "929160387114550",
        "name": "Hayato Takeuchi"
      },
      "to": {
        "data": [
          {
            "id": "799715273446755",
            "name": "Nagakura Chiemi"
          }
        ]
      },
      "with_tags": {
        "data": [
          {
            "id": "799715273446755",
            "name": "Nagakura Chiemi"
          }
        ]
      },
      "message": "土曜日に土岐麻子、昨日に細野晴臣/ハナレグミ/クラムボンのライブを見てきました。\nどちらもかなり前の方で臨場感たっぷり。\n土岐さんの方に関しては、お父さんが一緒にステージで演奏したり、メドレーやったり、握手できたりと楽しいライブでした。\nハナレグミ~の方は、クリスマス感たっぷりでほっこりとした感じでした。\n音楽ってよいですねー。改めて。\nあ、今日はMステでX Japan!\n\n※写真二枚目は本文と関係ないけど妖怪ウォッチシャンメリー",
      "story": "Hayato Takeuchi added 2 new photos.",
      "story_tags": {
        "0": [
          {
            "id": "929160387114550",
            "name": "Hayato Takeuchi",
            "type": "user",
            "offset": 0,
            "length": 15
          }
        ]
      },
      "picture": "https://fbcdn-sphotos-b-a.akamaihd.net/hphotos-ak-xfp1/v/t1.0-9/s130x130/10891929_884113454952577_3517984397461428602_n.jpg?oh=0e89f018260016a29c372229f3e57b5c&oe=558412EA&__gda__=1437553626_6848b7d215309b4b673e7bce6116a54d",
      "link": "https://www.facebook.com/photo.php?fbid=884113454952577&set=a.404348316262429.96659.100000617918986&type=1",
      "icon": "https://www.facebook.com/images/icons/photo.gif?access_token=CAACEdEose0cBANfOty8ZADaiPWVveZCMtn0LqKVZA1AaSZBrqe7wc9YFtuuZBRqUPUN5SeJLwI0BZCmF9ZArmXPSKUzpmTyca28C9ZC6y1ue8AMOkLK4WbRtGNYfZCZBkgJdPU3yPjebCTxjZBiJh51mEbRWTYZB2UcMCkOROFIJdIEJuuTsvPZBJyvFHy09QE1uFrBVmdzzRlJSeW7N1y0icVmTHgPIwESnQQwIZD&format=json&method=get&pretty=0&suppress_http_code=1",
      "actions": [
        {
          "name": "Comment",
          "link": "https://www.facebook.com/929160387114550/posts/884126954951227"
        },
        {
          "name": "Like",
          "link": "https://www.facebook.com/929160387114550/posts/884126954951227"
        }
      ],
      "privacy": {
        "value": "ALL_FRIENDS",
        "description": "Your friends",
        "friends": "",
        "allow": "",
        "deny": ""
      },
      "type": "photo",
      "status_type": "added_photos",
      "object_id": "884113454952577",
      "created_time": "2014-12-26T00:02:57+0000",
      "updated_time": "2014-12-26T03:33:04+0000",
      "subscribed": true,
      "likes": {
        "data": [
          {
            "id": "642332059228754",
            "name": "Maiko Inui"
          },
          {
            "id": "632067850232675",
            "name": "Izumi Touma"
          },
          {
            "id": "785858934831395",
            "name": "Yu Sasaki"
          },
          {
            "id": "1562102074051994",
            "name": "Masaya Ishiguro"
          },
          {
            "id": "675873059185058",
            "name": "Nakamura Ryoko"
          }
        ],
        "paging": {
          "cursors": {
            "after": "Njc1ODczMDU5MTg1MDU4",
            "before": "NjQyMzMyMDU5MjI4NzU0"
          }
        }
      },
      "comments": {
        "data": [
          {
            "id": "884126954951227_884225558274700",
            "from": {
              "id": "670093333102439",
              "name": "Megumi Shigeta"
            },
            "message": "甥っ子に教えてもらったからキャラ名が大体分かるぞ！\nジバニャン、悪ニャン、ロボニャン、武士ニャン…緑のトゲトゲしたのは何？∑(ﾟДﾟ)",
            "can_remove": true,
            "created_time": "2014-12-26T02:30:55+0000",
            "like_count": 0,
            "user_likes": false
          },
          {
            "id": "884126954951227_884246228272633",
            "from": {
              "id": "929160387114550",
              "name": "Hayato Takeuchi"
            },
            "message": "トゲニャンですな。アニメではジバニャンが風邪ひいたらトゲニャンになってた",
            "can_remove": true,
            "created_time": "2014-12-26T03:33:04+0000",
            "like_count": 0,
            "user_likes": false
          }
        ],
        "paging": {
          "cursors": {
            "after": "WTI5dGJXVnVkRjlqZFhKemIzSTZPRGcwTWpRMk1qSTRNamN5TmpNek9qRTBNVGsxTmpRM09EUT0=",
            "before": "WTI5dGJXVnVkRjlqZFhKemIzSTZPRGcwTWpJMU5UVTRNamMwTnpBd09qRTBNVGsxTmpFd05UWT0="
          }
        }
      }
    },
    {
      "id": "929160387114550_853264418037481",
      "from": {
        "id": "929160387114550",
        "name": "Hayato Takeuchi"
      },
      "message": "最終出勤日だったのに普通に働いて何故か終電帰り。これから約二週間休みができたけど特にやることなく概ね暇。",
      "actions": [
        {
          "name": "Comment",
          "link": "https://www.facebook.com/929160387114550/posts/853264418037481"
        },
        {
          "name": "Like",
          "link": "https://www.facebook.com/929160387114550/posts/853264418037481"
        }
      ],
      "privacy": {
        "value": "ALL_FRIENDS",
        "description": "Your friends",
        "friends": "",
        "allow": "",
        "deny": ""
      },
      "type": "status",
      "status_type": "mobile_status_update",
      "created_time": "2014-10-31T17:37:27+0000",
      "updated_time": "2014-11-12T14:46:48+0000",
      "subscribed": true
    },
    {
      "id": "929160387114550_850060058357917",
      "from": {
        "id": "929160387114550",
        "name": "Hayato Takeuchi"
      },
      "message": "この一週間で宇都宮に二度行った結果。",
      "picture": "https://scontent.xx.fbcdn.net/hphotos-xpf1/v/t1.0-9/s130x130/10408636_850059718357951_4959750006429623734_n.jpg?oh=fea4abb61a937457a077b1830ac644d7&oe=55BD90C3",
      "link": "https://www.facebook.com/photo.php?fbid=850059718357951&set=a.404348316262429.96659.100000617918986&type=1",
      "icon": "https://www.facebook.com/images/icons/photo.gif?access_token=CAACEdEose0cBANfOty8ZADaiPWVveZCMtn0LqKVZA1AaSZBrqe7wc9YFtuuZBRqUPUN5SeJLwI0BZCmF9ZArmXPSKUzpmTyca28C9ZC6y1ue8AMOkLK4WbRtGNYfZCZBkgJdPU3yPjebCTxjZBiJh51mEbRWTYZB2UcMCkOROFIJdIEJuuTsvPZBJyvFHy09QE1uFrBVmdzzRlJSeW7N1y0icVmTHgPIwESnQQwIZD&format=json&method=get&pretty=0&suppress_http_code=1",
      "actions": [
        {
          "name": "Comment",
          "link": "https://www.facebook.com/929160387114550/posts/850060058357917"
        },
        {
          "name": "Like",
          "link": "https://www.facebook.com/929160387114550/posts/850060058357917"
        }
      ],
      "privacy": {
        "value": "ALL_FRIENDS",
        "description": "Your friends",
        "friends": "",
        "allow": "",
        "deny": ""
      },
      "type": "photo",
      "status_type": "added_photos",
      "object_id": "850059718357951",
      "created_time": "2014-10-25T13:24:21+0000",
      "updated_time": "2014-10-25T13:24:21+0000",
      "subscribed": true
    },
    {
      "id": "929160387114550_842608692436387",
      "from": {
        "id": "929160387114550",
        "name": "Hayato Takeuchi"
      },
      "message": "ガスリーゴーヴァン特集があるとのことで、相当久々にギターマガジン買ってきた。けど、Webで見れるはずの動画がまだみれずに激おこぷんぷん丸状態（もはや死語か）",
      "actions": [
        {
          "name": "Comment",
          "link": "https://www.facebook.com/929160387114550/posts/842608692436387"
        },
        {
          "name": "Like",
          "link": "https://www.facebook.com/929160387114550/posts/842608692436387"
        }
      ],
      "privacy": {
        "value": "ALL_FRIENDS",
        "description": "Your friends",
        "friends": "",
        "allow": "",
        "deny": ""
      },
      "type": "status",
      "status_type": "mobile_status_update",
      "created_time": "2014-10-11T15:37:47+0000",
      "updated_time": "2014-10-11T15:37:47+0000",
      "subscribed": true
    },
    {
      "id": "929160387114550_840284522668804",
      "from": {
        "id": "929160387114550",
        "name": "Hayato Takeuchi"
      },
      "message": "中野にこんな店が出来てた",
      "picture": "https://scontent.xx.fbcdn.net/hphotos-xpf1/v/t1.0-9/s130x130/1185138_840284506002139_5808146594569379937_n.jpg?oh=4f5cb5a302aaa9eca513919b349ba5af&oe=557AE62F",
      "link": "https://www.facebook.com/photo.php?fbid=840284506002139&set=a.404348316262429.96659.100000617918986&type=1",
      "icon": "https://www.facebook.com/images/icons/photo.gif?access_token=CAACEdEose0cBANfOty8ZADaiPWVveZCMtn0LqKVZA1AaSZBrqe7wc9YFtuuZBRqUPUN5SeJLwI0BZCmF9ZArmXPSKUzpmTyca28C9ZC6y1ue8AMOkLK4WbRtGNYfZCZBkgJdPU3yPjebCTxjZBiJh51mEbRWTYZB2UcMCkOROFIJdIEJuuTsvPZBJyvFHy09QE1uFrBVmdzzRlJSeW7N1y0icVmTHgPIwESnQQwIZD&format=json&method=get&pretty=0&suppress_http_code=1",
      "actions": [
        {
          "name": "Comment",
          "link": "https://www.facebook.com/929160387114550/posts/840284522668804"
        },
        {
          "name": "Like",
          "link": "https://www.facebook.com/929160387114550/posts/840284522668804"
        }
      ],
      "privacy": {
        "value": "ALL_FRIENDS",
        "description": "Your friends",
        "friends": "",
        "allow": "",
        "deny": ""
      },
      "type": "photo",
      "status_type": "added_photos",
      "object_id": "840284506002139",
      "created_time": "2014-10-08T07:29:45+0000",
      "updated_time": "2014-10-11T15:22:29+0000",
      "subscribed": true
    },
    {
      "id": "929160387114550_833744569989466",
      "from": {
        "id": "929160387114550",
        "name": "Hayato Takeuchi"
      },
      "message": "とても心惹かれる特集。",
      "picture": "https://fbexternal-a.akamaihd.net/safe_image.php?d=AQC_yXoJEedFagBh&w=130&h=130&url=http%3A%2F%2Flivedoor.blogimg.jp%2Fhatima%2Fimgs%2Fe%2F3%2Fe3ca6572.gif&cfs=1",
      "link": "http://blog.esuteru.com/archives/7867956.html",
      "name": "今日の『タモリ倶楽部』は自作アーケードゲーム特集！　ゲストはマキシマムザホルモンとヒャダイン！！ : はちま起稿",
      "caption": "blog.esuteru.com",
      "description": "はちま起稿：今日の『タモリ倶楽部』は自作アーケードゲーム特集！　ゲストはマキシマムザホルモンとヒャダイン！！",
      "icon": "https://www.facebook.com/images/icons/post.gif?access_token=CAACEdEose0cBANfOty8ZADaiPWVveZCMtn0LqKVZA1AaSZBrqe7wc9YFtuuZBRqUPUN5SeJLwI0BZCmF9ZArmXPSKUzpmTyca28C9ZC6y1ue8AMOkLK4WbRtGNYfZCZBkgJdPU3yPjebCTxjZBiJh51mEbRWTYZB2UcMCkOROFIJdIEJuuTsvPZBJyvFHy09QE1uFrBVmdzzRlJSeW7N1y0icVmTHgPIwESnQQwIZD&format=json&method=get&pretty=0&suppress_http_code=1",
      "actions": [
        {
          "name": "Comment",
          "link": "https://www.facebook.com/929160387114550/posts/833744569989466"
        },
        {
          "name": "Like",
          "link": "https://www.facebook.com/929160387114550/posts/833744569989466"
        }
      ],
      "privacy": {
        "value": "ALL_FRIENDS",
        "description": "Your friends",
        "friends": "",
        "allow": "",
        "deny": ""
      },
      "type": "link",
      "status_type": "shared_story",
      "created_time": "2014-09-26T04:40:44+0000",
      "updated_time": "2014-09-26T04:40:44+0000",
      "subscribed": true
    },
    {
      "id": "929160387114550_825482917482298",
      "from": {
        "id": "929160387114550",
        "name": "Hayato Takeuchi"
      },
      "message": "スト2土下座ストラップガチャ(一つ300円)を8回回した結果。",
      "picture": "https://fbcdn-sphotos-d-a.akamaihd.net/hphotos-ak-xpf1/v/t1.0-9/s130x130/10524647_825482894148967_6185963400563475211_n.jpg?oh=43003d9110a9c2e8e572849b96188051&oe=55BC2E67&__gda__=1433983962_8f43beedee2204b575fa05144d083ad4",
      "link": "https://www.facebook.com/photo.php?fbid=825482894148967&set=a.404348316262429.96659.100000617918986&type=1",
      "icon": "https://www.facebook.com/images/icons/photo.gif?access_token=CAACEdEose0cBANfOty8ZADaiPWVveZCMtn0LqKVZA1AaSZBrqe7wc9YFtuuZBRqUPUN5SeJLwI0BZCmF9ZArmXPSKUzpmTyca28C9ZC6y1ue8AMOkLK4WbRtGNYfZCZBkgJdPU3yPjebCTxjZBiJh51mEbRWTYZB2UcMCkOROFIJdIEJuuTsvPZBJyvFHy09QE1uFrBVmdzzRlJSeW7N1y0icVmTHgPIwESnQQwIZD&format=json&method=get&pretty=0&suppress_http_code=1",
      "actions": [
        {
          "name": "Comment",
          "link": "https://www.facebook.com/929160387114550/posts/825482917482298"
        },
        {
          "name": "Like",
          "link": "https://www.facebook.com/929160387114550/posts/825482917482298"
        }
      ],
      "privacy": {
        "value": "ALL_FRIENDS",
        "description": "Your friends",
        "friends": "",
        "allow": "",
        "deny": ""
      },
      "type": "photo",
      "status_type": "added_photos",
      "object_id": "825482894148967",
      "created_time": "2014-09-07T14:48:54+0000",
      "updated_time": "2014-09-08T23:16:15+0000",
      "subscribed": true
    },
    {
      "id": "929160387114550_800613373302586",
      "from": {
        "id": "929160387114550",
        "name": "Hayato Takeuchi"
      },
      "message": "久々の三連休前ということで勢いで3DSLL(ジバニャンパック)を購入。",
      "picture": "https://scontent.xx.fbcdn.net/hphotos-xfa1/v/t1.0-9/s130x130/10534706_800613336635923_6995373707692556729_n.jpg?oh=e2321b888ee0a208d90fa455f89fd8ae&oe=5580044E",
      "link": "https://www.facebook.com/photo.php?fbid=800613336635923&set=a.404348316262429.96659.100000617918986&type=1",
      "icon": "https://www.facebook.com/images/icons/photo.gif?access_token=CAACEdEose0cBANfOty8ZADaiPWVveZCMtn0LqKVZA1AaSZBrqe7wc9YFtuuZBRqUPUN5SeJLwI0BZCmF9ZArmXPSKUzpmTyca28C9ZC6y1ue8AMOkLK4WbRtGNYfZCZBkgJdPU3yPjebCTxjZBiJh51mEbRWTYZB2UcMCkOROFIJdIEJuuTsvPZBJyvFHy09QE1uFrBVmdzzRlJSeW7N1y0icVmTHgPIwESnQQwIZD&format=json&method=get&pretty=0&suppress_http_code=1",
      "actions": [
        {
          "name": "Comment",
          "link": "https://www.facebook.com/929160387114550/posts/800613373302586"
        },
        {
          "name": "Like",
          "link": "https://www.facebook.com/929160387114550/posts/800613373302586"
        }
      ],
      "privacy": {
        "value": "ALL_FRIENDS",
        "description": "Your friends",
        "friends": "",
        "allow": "",
        "deny": ""
      },
      "type": "photo",
      "status_type": "added_photos",
      "object_id": "800613336635923",
      "created_time": "2014-07-18T17:01:17+0000",
      "updated_time": "2014-07-18T22:54:45+0000",
      "subscribed": true
    },
    {
      "id": "929160387114550_779545098742747",
      "from": {
        "id": "929160387114550",
        "name": "Hayato Takeuchi"
      },
      "story": "Hayato Takeuchi shared a link.",
      "story_tags": {
        "0": [
          {
            "id": "929160387114550",
            "name": "Hayato Takeuchi",
            "type": "user",
            "offset": 0,
            "length": 15
          }
        ]
      },
      "picture": "https://fbexternal-a.akamaihd.net/safe_image.php?d=AQDrsoM99SXLta2Y&w=130&h=130&url=http%3A%2F%2Fcontents.oricon.co.jp%2Fupimg%2Fnews%2F20140603%2F2038157_201406030892606001401746436c.jpg&cfs=1&sx=75&sy=0&sw=352&sh=352",
      "link": "http://www.oricon.co.jp/news/2038157/full/",
      "name": "佐藤二朗「僕のライフワーク」　『幼獣マメシバ』ドラマ＆映画第4弾決定 ニュース-ORICON STYLE-",
      "caption": "oricon.co.jp",
      "description": "　俳優の佐藤二朗主演で、引きこもりの中年男と子犬のふれあいを描く『マメシバ』シリーズの第4弾のドラマ放送と劇場版公開が決定した。ドラマ版は7月からこれまでで最大の地上波16局で放送され、劇場版『幼獣マメシバ 望郷篇』は9月20日に公開される。　独立UHF局発のドラマ『幼獣マメシバ』（2009年）にはじまり、『マメシバ一郎』（2011年）、『マメシバ一郎 フーテンの芝二郎』（2012・・・・・",
      "icon": "https://www.facebook.com/images/icons/post.gif?access_token=CAACEdEose0cBANfOty8ZADaiPWVveZCMtn0LqKVZA1AaSZBrqe7wc9YFtuuZBRqUPUN5SeJLwI0BZCmF9ZArmXPSKUzpmTyca28C9ZC6y1ue8AMOkLK4WbRtGNYfZCZBkgJdPU3yPjebCTxjZBiJh51mEbRWTYZB2UcMCkOROFIJdIEJuuTsvPZBJyvFHy09QE1uFrBVmdzzRlJSeW7N1y0icVmTHgPIwESnQQwIZD&format=json&method=get&pretty=0&suppress_http_code=1",
      "actions": [
        {
          "name": "Comment",
          "link": "https://www.facebook.com/929160387114550/posts/779545098742747"
        },
        {
          "name": "Like",
          "link": "https://www.facebook.com/929160387114550/posts/779545098742747"
        }
      ],
      "privacy": {
        "value": "ALL_FRIENDS",
        "description": "Your friends",
        "friends": "",
        "allow": "",
        "deny": ""
      },
      "type": "link",
      "status_type": "shared_story",
      "created_time": "2014-06-06T15:01:45+0000",
      "updated_time": "2014-06-06T15:01:45+0000",
      "subscribed": true
    },
    {
      "id": "929160387114550_746247398739184",
      "from": {
        "id": "929160387114550",
        "name": "Hayato Takeuchi"
      },
      "message": "長野きた。長野寒い。",
      "picture": "https://fbcdn-sphotos-g-a.akamaihd.net/hphotos-ak-xaf1/v/t1.0-9/s130x130/10153934_746247372072520_3001725858298404115_n.jpg?oh=17017de73e5ff4810baa54f6dd3a0e49&oe=55B126A0&__gda__=1434907975_6768aa8925605e8846ef62545ffecabe",
      "link": "https://www.facebook.com/photo.php?fbid=746247372072520&set=a.404348316262429.96659.100000617918986&type=1",
      "icon": "https://www.facebook.com/images/icons/photo.gif?access_token=CAACEdEose0cBANfOty8ZADaiPWVveZCMtn0LqKVZA1AaSZBrqe7wc9YFtuuZBRqUPUN5SeJLwI0BZCmF9ZArmXPSKUzpmTyca28C9ZC6y1ue8AMOkLK4WbRtGNYfZCZBkgJdPU3yPjebCTxjZBiJh51mEbRWTYZB2UcMCkOROFIJdIEJuuTsvPZBJyvFHy09QE1uFrBVmdzzRlJSeW7N1y0icVmTHgPIwESnQQwIZD&format=json&method=get&pretty=0&suppress_http_code=1",
      "actions": [
        {
          "name": "Comment",
          "link": "https://www.facebook.com/929160387114550/posts/746247398739184"
        },
        {
          "name": "Like",
          "link": "https://www.facebook.com/929160387114550/posts/746247398739184"
        }
      ],
      "privacy": {
        "value": "ALL_FRIENDS",
        "description": "Your friends",
        "friends": "",
        "allow": "",
        "deny": ""
      },
      "type": "photo",
      "status_type": "added_photos",
      "object_id": "746247372072520",
      "created_time": "2014-04-05T02:41:39+0000",
      "updated_time": "2014-04-05T08:56:10+0000",
      "subscribed": true
    },
    {
      "id": "929160387114550_721802961183628",
      "from": {
        "id": "929160387114550",
        "name": "Hayato Takeuchi"
      },
      "picture": "https://fbexternal-a.akamaihd.net/safe_image.php?d=AQC33HNg49UfyqjM&w=130&h=130&url=http%3A%2F%2Fi1.ytimg.com%2Fvi%2FugMTdnorGlI%2Fhqdefault.jpg&cfs=1",
      "link": "http://www.youtube.com/attribution_link?a=S3QVaTWCv4U&u=%2Fwatch%3Fv%3DugMTdnorGlI%26feature%3Dshare",
      "name": "こりゃめでてーな伊藤　カイジのものまね",
      "caption": "アップロードしたユーザー: Karimono",
      "description": "せっ・・・！せっ・・・！押せっ・・・！押せっ・・・！",
      "icon": "https://www.facebook.com/images/icons/post.gif?access_token=CAACEdEose0cBANfOty8ZADaiPWVveZCMtn0LqKVZA1AaSZBrqe7wc9YFtuuZBRqUPUN5SeJLwI0BZCmF9ZArmXPSKUzpmTyca28C9ZC6y1ue8AMOkLK4WbRtGNYfZCZBkgJdPU3yPjebCTxjZBiJh51mEbRWTYZB2UcMCkOROFIJdIEJuuTsvPZBJyvFHy09QE1uFrBVmdzzRlJSeW7N1y0icVmTHgPIwESnQQwIZD&format=json&method=get&pretty=0&suppress_http_code=1",
      "actions": [
        {
          "name": "Comment",
          "link": "https://www.facebook.com/929160387114550/posts/721802961183628"
        },
        {
          "name": "Like",
          "link": "https://www.facebook.com/929160387114550/posts/721802961183628"
        },
        {
          "name": "YouTube でチャンネル登録する",
          "link": "http://www.youtube.com/channel/UC3vaXUSoEs7I6w-dKpHy8eA?sub_confirmation=1"
        }
      ],
      "privacy": {
        "value": "ALL_FRIENDS",
        "description": "Your friends",
        "friends": "",
        "allow": "",
        "deny": ""
      },
      "type": "link",
      "status_type": "shared_story",
      "application": {
        "name": "YouTube",
        "namespace": "yt-fb-app",
        "id": "87741124305"
      },
      "created_time": "2014-02-15T15:04:24+0000",
      "updated_time": "2014-02-15T15:04:24+0000",
      "subscribed": true
    },
    {
      "id": "929160387114550_669494713081120",
      "from": {
        "id": "929160387114550",
        "name": "Hayato Takeuchi"
      },
      "message": "プラっと御茶ノ水きたらガスGが見れるとのことだったのでひとまず整理券をゲット",
      "picture": "https://scontent.xx.fbcdn.net/hphotos-xpf1/v/t1.0-9/q83/s130x130/1395315_669494689747789_1560725586_n.jpg?oh=dcf93158b064b7031e2c01f5912e0cda&oe=5586C2E4",
      "link": "https://www.facebook.com/photo.php?fbid=669494689747789&set=a.404348316262429.96659.100000617918986&type=1",
      "icon": "https://www.facebook.com/images/icons/photo.gif?access_token=CAACEdEose0cBANfOty8ZADaiPWVveZCMtn0LqKVZA1AaSZBrqe7wc9YFtuuZBRqUPUN5SeJLwI0BZCmF9ZArmXPSKUzpmTyca28C9ZC6y1ue8AMOkLK4WbRtGNYfZCZBkgJdPU3yPjebCTxjZBiJh51mEbRWTYZB2UcMCkOROFIJdIEJuuTsvPZBJyvFHy09QE1uFrBVmdzzRlJSeW7N1y0icVmTHgPIwESnQQwIZD&format=json&method=get&pretty=0&suppress_http_code=1",
      "actions": [
        {
          "name": "Comment",
          "link": "https://www.facebook.com/929160387114550/posts/669494713081120"
        },
        {
          "name": "Like",
          "link": "https://www.facebook.com/929160387114550/posts/669494713081120"
        }
      ],
      "privacy": {
        "value": "ALL_FRIENDS",
        "description": "Your friends",
        "friends": "",
        "allow": "",
        "deny": ""
      },
      "type": "photo",
      "status_type": "added_photos",
      "object_id": "669494689747789",
      "created_time": "2013-11-09T06:54:06+0000",
      "updated_time": "2013-11-09T12:01:56+0000",
      "subscribed": true
    },
    {
      "id": "929160387114550_662221353808456",
      "from": {
        "id": "929160387114550",
        "name": "Hayato Takeuchi"
      },
      "message": "先週の日曜初めて坂本真綾のライブを見に行ったけど(at日比谷野音)、まさかの豪雨で寒いし雨うるさいしアコースティック編成だったしで消化不良だったので、ライブDVDを鑑賞中。そして明日はシャムシェイドライブ",
      "picture": "https://scontent.xx.fbcdn.net/hphotos-ash2/v/t1.0-9/s130x130/601743_662217403808851_1088279024_n.jpg?oh=acc8ed5f1f5f48cbb197b18c809e8f02&oe=557131C4",
      "link": "https://www.facebook.com/photo.php?fbid=662217403808851&set=a.404348316262429.96659.100000617918986&type=1",
      "icon": "https://www.facebook.com/images/icons/photo.gif?access_token=CAACEdEose0cBANfOty8ZADaiPWVveZCMtn0LqKVZA1AaSZBrqe7wc9YFtuuZBRqUPUN5SeJLwI0BZCmF9ZArmXPSKUzpmTyca28C9ZC6y1ue8AMOkLK4WbRtGNYfZCZBkgJdPU3yPjebCTxjZBiJh51mEbRWTYZB2UcMCkOROFIJdIEJuuTsvPZBJyvFHy09QE1uFrBVmdzzRlJSeW7N1y0icVmTHgPIwESnQQwIZD&format=json&method=get&pretty=0&suppress_http_code=1",
      "actions": [
        {
          "name": "Comment",
          "link": "https://www.facebook.com/929160387114550/posts/662221353808456"
        },
        {
          "name": "Like",
          "link": "https://www.facebook.com/929160387114550/posts/662221353808456"
        }
      ],
      "privacy": {
        "value": "ALL_FRIENDS",
        "description": "Your friends",
        "friends": "",
        "allow": "",
        "deny": ""
      },
      "type": "photo",
      "status_type": "added_photos",
      "object_id": "662217403808851",
      "created_time": "2013-10-26T13:56:48+0000",
      "updated_time": "2013-10-26T13:56:48+0000",
      "subscribed": true
    },
    {
      "id": "929160387114550_639091029454822",
      "from": {
        "id": "929160387114550",
        "name": "Hayato Takeuchi"
      },
      "message": "いくらまで上がるのか楽しみ",
      "story": "Hayato Takeuchi likes a product on ヤフオク!",
      "story_tags": {
        "0": [
          {
            "id": "929160387114550",
            "name": "Hayato Takeuchi",
            "type": "user",
            "offset": 0,
            "length": 15
          }
        ],
        "35": [
          {
            "id": "311039895631190",
            "name": "ヤフオク!",
            "type": "application",
            "offset": 35,
            "length": 5
          }
        ]
      },
      "picture": "https://fbexternal-a.akamaihd.net/safe_image.php?d=AQA24_bIJRtY0JND&w=130&h=130&url=http%3A%2F%2Fauctions.c.yimg.jp%2Fimg239.auctions.yahoo.co.jp%2Fusers%2F6%2F3%2F0%2F2%2Ftokyojazz_charity-img448x600-13781942094bou5u70279.jpg&cfs=1",
      "link": "http://page3.auctions.yahoo.co.jp/jp/auction/c396570882?fb_action_ids=639091029454822&fb_action_types=og.likes&fb_source=other_multiline&action_object_map=%5B560724327309665%5D&action_type_map=%5B%22og.likes%22%5D&action_ref_map=%5B%5D",
      "name": "[チャリティ]ラリーカールトンほかサイン入りギターGibsonES-335 - ヤフオク!",
      "caption": "[チャリティ]ラリーカールトンほかサイン入りギターGibsonES-335 - ヤフオク!",
      "description": "■チャリティオークション東北地方太平洋沖地震におきまして、被害にあわれた皆様に心よりお見舞い申しあげますとともに、犠牲になられた方々とご遺族の皆様に対し、深くお悔やみを申しあげます。--------------------------------------------------------------------------------今回の災害に対する支援として「東北地方太平洋沖地震チャリティーオークション」を開催させていただきます。様々な法人・団体の皆様よりご出品を頂いておりますので、ご賛同頂けま",
      "icon": "https://www.facebook.com/images/icons/post.gif?access_token=CAACEdEose0cBANfOty8ZADaiPWVveZCMtn0LqKVZA1AaSZBrqe7wc9YFtuuZBRqUPUN5SeJLwI0BZCmF9ZArmXPSKUzpmTyca28C9ZC6y1ue8AMOkLK4WbRtGNYfZCZBkgJdPU3yPjebCTxjZBiJh51mEbRWTYZB2UcMCkOROFIJdIEJuuTsvPZBJyvFHy09QE1uFrBVmdzzRlJSeW7N1y0icVmTHgPIwESnQQwIZD&format=json&method=get&pretty=0&suppress_http_code=1",
      "actions": [
        {
          "name": "Comment",
          "link": "https://www.facebook.com/929160387114550/posts/639091029454822"
        },
        {
          "name": "Like",
          "link": "https://www.facebook.com/929160387114550/posts/639091029454822"
        }
      ],
      "privacy": {
        "value": "EVERYONE",
        "description": "Public",
        "friends": "",
        "allow": "",
        "deny": ""
      },
      "type": "link",
      "object_id": "639091029454822",
      "created_time": "2013-09-12T11:17:28+0000",
      "updated_time": "2013-09-12T11:17:28+0000",
      "subscribed": true
    },
    {
      "id": "929160387114550_633262233371035",
      "from": {
        "id": "929160387114550",
        "name": "Hayato Takeuchi"
      },
      "message": "テディベアミュージアムにやってきた",
      "actions": [
        {
          "name": "Comment",
          "link": "https://www.facebook.com/929160387114550/posts/633262233371035"
        },
        {
          "name": "Like",
          "link": "https://www.facebook.com/929160387114550/posts/633262233371035"
        }
      ],
      "privacy": {
        "value": "CUSTOM",
        "description": "Friends",
        "friends": "ALL_FRIENDS",
        "allow": "",
        "deny": "567475166616409"
      },
      "place": {
        "id": "146921848763706",
        "name": "那須テディベア・ミュージアム",
        "location": {
          "city": "Nasu-machi Nasu-gun",
          "country": "Japan",
          "latitude": 37.049040159076,
          "longitude": 140.03930094126,
          "state": "Tochigi",
          "street": "那須町高久丙1185-4",
          "zip": "325-0302"
        }
      },
      "type": "status",
      "status_type": "mobile_status_update",
      "created_time": "2013-08-31T06:07:07+0000",
      "updated_time": "2013-08-31T06:07:07+0000",
      "subscribed": true
    },
    {
      "id": "929160387114550_624953890868536",
      "from": {
        "id": "929160387114550",
        "name": "Hayato Takeuchi"
      },
      "message": "10時集合だけど、10時42分まで電車が来ない。とりあえずアイス食べよう。",
      "story": "Hayato Takeuchi at Ohanabatake Station",
      "picture": "https://scontent.xx.fbcdn.net/hphotos-frc3/v/t1.0-9/s130x130/579649_624953877535204_1805082164_n.jpg?oh=24f91596a5b2d8fbfb22d6d96f15370e&oe=55BA8FB2",
      "link": "https://www.facebook.com/photo.php?fbid=624953877535204&set=a.404348316262429.96659.100000617918986&type=1",
      "icon": "https://www.facebook.com/images/icons/photo.gif?access_token=CAACEdEose0cBANfOty8ZADaiPWVveZCMtn0LqKVZA1AaSZBrqe7wc9YFtuuZBRqUPUN5SeJLwI0BZCmF9ZArmXPSKUzpmTyca28C9ZC6y1ue8AMOkLK4WbRtGNYfZCZBkgJdPU3yPjebCTxjZBiJh51mEbRWTYZB2UcMCkOROFIJdIEJuuTsvPZBJyvFHy09QE1uFrBVmdzzRlJSeW7N1y0icVmTHgPIwESnQQwIZD&format=json&method=get&pretty=0&suppress_http_code=1",
      "actions": [
        {
          "name": "Comment",
          "link": "https://www.facebook.com/929160387114550/posts/624953890868536"
        },
        {
          "name": "Like",
          "link": "https://www.facebook.com/929160387114550/posts/624953890868536"
        }
      ],
      "privacy": {
        "value": "CUSTOM",
        "description": "Friends",
        "friends": "ALL_FRIENDS",
        "allow": "",
        "deny": "567475166616409"
      },
      "place": {
        "id": "119988838078360",
        "name": "Ohanabatake Station",
        "location": {
          "city": "Chichibu-shi",
          "country": "Japan",
          "latitude": 35.992387,
          "longitude": 139.083722,
          "state": "Saitama",
          "street": "東町21-3",
          "zip": "368-0042"
        }
      },
      "type": "photo",
      "status_type": "added_photos",
      "object_id": "624953877535204",
      "created_time": "2013-08-14T01:17:40+0000",
      "updated_time": "2013-08-14T01:17:40+0000",
      "subscribed": true
    },
    {
      "id": "929160387114550_621356757894916",
      "from": {
        "id": "929160387114550",
        "name": "Hayato Takeuchi"
      },
      "message": "最近、ペダル型オーディオインターフェイスをゲットした。ワウってなんて楽しいんだ",
      "picture": "https://scontent.xx.fbcdn.net/hphotos-ash2/v/t1.0-9/p130x130/999169_621356347894957_1278811272_n.jpg?oh=ca262b655e1788322c52a625baba7a39&oe=55B487E7",
      "link": "https://www.facebook.com/photo.php?fbid=621356347894957&set=a.621356744561584.1073741826.100000617918986&type=1",
      "icon": "https://www.facebook.com/images/icons/photo.gif?access_token=CAACEdEose0cBANfOty8ZADaiPWVveZCMtn0LqKVZA1AaSZBrqe7wc9YFtuuZBRqUPUN5SeJLwI0BZCmF9ZArmXPSKUzpmTyca28C9ZC6y1ue8AMOkLK4WbRtGNYfZCZBkgJdPU3yPjebCTxjZBiJh51mEbRWTYZB2UcMCkOROFIJdIEJuuTsvPZBJyvFHy09QE1uFrBVmdzzRlJSeW7N1y0icVmTHgPIwESnQQwIZD&format=json&method=get&pretty=0&suppress_http_code=1",
      "actions": [
        {
          "name": "Comment",
          "link": "https://www.facebook.com/929160387114550/posts/621356757894916"
        },
        {
          "name": "Like",
          "link": "https://www.facebook.com/929160387114550/posts/621356757894916"
        }
      ],
      "privacy": {
        "value": "CUSTOM",
        "description": "Friends",
        "friends": "ALL_FRIENDS",
        "allow": "",
        "deny": "567475166616409"
      },
      "type": "photo",
      "status_type": "added_photos",
      "object_id": "621356347894957",
      "created_time": "2013-08-06T13:56:36+0000",
      "updated_time": "2013-08-06T13:56:36+0000",
      "subscribed": true
    },
    {
      "id": "929160387114550_616912088339383",
      "from": {
        "id": "929160387114550",
        "name": "Hayato Takeuchi"
      },
      "message": "藤子F不二雄展にきてみた@東京タワー",
      "picture": "https://fbcdn-sphotos-g-a.akamaihd.net/hphotos-ak-xaf1/v/t1.0-9/s130x130/15057_616912078339384_1738877805_n.jpg?oh=400ff48db83a9e03ce60c53894f1ee62&oe=55BD3398&__gda__=1437737927_1f2df159e98c8394a91ff29a7fedd74f",
      "link": "https://www.facebook.com/photo.php?fbid=616912078339384&set=a.404348316262429.96659.100000617918986&type=1",
      "icon": "https://www.facebook.com/images/icons/photo.gif?access_token=CAACEdEose0cBANfOty8ZADaiPWVveZCMtn0LqKVZA1AaSZBrqe7wc9YFtuuZBRqUPUN5SeJLwI0BZCmF9ZArmXPSKUzpmTyca28C9ZC6y1ue8AMOkLK4WbRtGNYfZCZBkgJdPU3yPjebCTxjZBiJh51mEbRWTYZB2UcMCkOROFIJdIEJuuTsvPZBJyvFHy09QE1uFrBVmdzzRlJSeW7N1y0icVmTHgPIwESnQQwIZD&format=json&method=get&pretty=0&suppress_http_code=1",
      "actions": [
        {
          "name": "Comment",
          "link": "https://www.facebook.com/929160387114550/posts/616912088339383"
        },
        {
          "name": "Like",
          "link": "https://www.facebook.com/929160387114550/posts/616912088339383"
        }
      ],
      "privacy": {
        "value": "CUSTOM",
        "description": "Friends",
        "friends": "ALL_FRIENDS",
        "allow": "",
        "deny": "567475166616409"
      },
      "type": "photo",
      "status_type": "added_photos",
      "object_id": "616912078339384",
      "created_time": "2013-07-27T10:32:08+0000",
      "updated_time": "2013-07-28T02:21:28+0000",
      "subscribed": true
    },
    {
      "id": "929160387114550_609543572409568",
      "from": {
        "id": "929160387114550",
        "name": "Hayato Takeuchi"
      },
      "message": "嵐のポスターの前に異常な人だかりが・・。近くのヤマピー前はスカスカなのに。なんという格差社会",
      "picture": "https://scontent.xx.fbcdn.net/hphotos-prn2/v/t1.0-9/s130x130/1016168_609543542409571_1965807311_n.jpg?oh=ea4f755c35aea1c44741209dcc7f1be4&oe=55B33D2A",
      "link": "https://www.facebook.com/photo.php?fbid=609543542409571&set=a.404348316262429.96659.100000617918986&type=1",
      "icon": "https://www.facebook.com/images/icons/photo.gif?access_token=CAACEdEose0cBANfOty8ZADaiPWVveZCMtn0LqKVZA1AaSZBrqe7wc9YFtuuZBRqUPUN5SeJLwI0BZCmF9ZArmXPSKUzpmTyca28C9ZC6y1ue8AMOkLK4WbRtGNYfZCZBkgJdPU3yPjebCTxjZBiJh51mEbRWTYZB2UcMCkOROFIJdIEJuuTsvPZBJyvFHy09QE1uFrBVmdzzRlJSeW7N1y0icVmTHgPIwESnQQwIZD&format=json&method=get&pretty=0&suppress_http_code=1",
      "actions": [
        {
          "name": "Comment",
          "link": "https://www.facebook.com/929160387114550/posts/609543572409568"
        },
        {
          "name": "Like",
          "link": "https://www.facebook.com/929160387114550/posts/609543572409568"
        }
      ],
      "privacy": {
        "value": "CUSTOM",
        "description": "Friends",
        "friends": "ALL_FRIENDS",
        "allow": "",
        "deny": "567475166616409"
      },
      "type": "photo",
      "status_type": "added_photos",
      "object_id": "609543542409571",
      "created_time": "2013-07-13T08:47:06+0000",
      "updated_time": "2013-07-13T08:47:06+0000",
      "subscribed": true
    },
    {
      "id": "929160387114550_598525756844683",
      "from": {
        "id": "929160387114550",
        "name": "Hayato Takeuchi"
      },
      "message": "ガンツ最終回 適当過ぎ 0点",
      "actions": [
        {
          "name": "Comment",
          "link": "https://www.facebook.com/929160387114550/posts/598525756844683"
        },
        {
          "name": "Like",
          "link": "https://www.facebook.com/929160387114550/posts/598525756844683"
        }
      ],
      "privacy": {
        "value": "CUSTOM",
        "description": "Friends",
        "friends": "ALL_FRIENDS",
        "allow": "",
        "deny": "567475166616409"
      },
      "type": "status",
      "status_type": "mobile_status_update",
      "created_time": "2013-06-20T14:25:36+0000",
      "updated_time": "2013-06-20T14:25:36+0000",
      "subscribed": true
    },
    {
      "id": "929160387114550_584751881555404",
      "from": {
        "id": "929160387114550",
        "name": "Hayato Takeuchi"
      },
      "message": "まさかすぎる・・・。非常にうれしいけど、こんな連載色々と手を広げて大丈夫なのか。。早く鷲巣麻雀おわらせてくれ。っていうかはやく麻雀に戻ってくれ。",
      "story": "Hayato Takeuchi likes a link on ナタリー.",
      "story_tags": {
        "0": [
          {
            "id": "929160387114550",
            "name": "Hayato Takeuchi",
            "type": "user",
            "offset": 0,
            "length": 15
          }
        ],
        "32": [
          {
            "id": "242059559172717",
            "name": "ナタリー",
            "type": "application",
            "offset": 32,
            "length": 4
          }
        ]
      },
      "picture": "https://fbexternal-a.akamaihd.net/safe_image.php?d=AQB6RofqQJd32Qpn&w=128&h=128&url=http%3A%2F%2Fnatalie.mu%2Fimages%2Fcomic%2Ficon.png&cfs=1",
      "link": "http://natalie.mu/comic/news/90942?fb_action_ids=584751881555404&fb_action_types=og.likes&fb_source=other_multiline&action_object_map=%5B332584753536899%5D&action_type_map=%5B%22og.likes%22%5D&action_ref_map=%5B%5D",
      "name": "福本伸行「新黒沢」新連載、あの死亡エンドから衝撃の再開",
      "caption": "福本伸行「新黒沢」新連載、あの死亡エンドから衝撃の再開",
      "description": "福本伸行の新連載「新黒沢 最強伝説」が、本日5月20日に発売されたビッグコミックオリジナル11号（小学館）にてスタートした。",
      "icon": "https://www.facebook.com/images/icons/post.gif?access_token=CAACEdEose0cBANfOty8ZADaiPWVveZCMtn0LqKVZA1AaSZBrqe7wc9YFtuuZBRqUPUN5SeJLwI0BZCmF9ZArmXPSKUzpmTyca28C9ZC6y1ue8AMOkLK4WbRtGNYfZCZBkgJdPU3yPjebCTxjZBiJh51mEbRWTYZB2UcMCkOROFIJdIEJuuTsvPZBJyvFHy09QE1uFrBVmdzzRlJSeW7N1y0icVmTHgPIwESnQQwIZD&format=json&method=get&pretty=0&suppress_http_code=1",
      "actions": [
        {
          "name": "Comment",
          "link": "https://www.facebook.com/929160387114550/posts/584751881555404"
        },
        {
          "name": "Like",
          "link": "https://www.facebook.com/929160387114550/posts/584751881555404"
        }
      ],
      "privacy": {
        "value": "EVERYONE",
        "description": "Public",
        "friends": "",
        "allow": "",
        "deny": ""
      },
      "type": "link",
      "object_id": "584751881555404",
      "created_time": "2013-05-21T14:36:10+0000",
      "updated_time": "2013-05-23T14:57:42+0000",
      "subscribed": true
    }
  ],
  "paging": {
    "previous": "https://graph.facebook.com/v2.2/929160387114550/posts?since=1421514981&limit=25&__paging_token=enc_AdDUZAU4ZAMwhuBzNjmG6qRiQPTN1ZAhE2JJTvZAOU6a7AEWuFOd3hYWXZCpcXEFUyZBdHiX8TWcrPtk84d28PmEI6qiExHbKZAEfoHkrCo6Qzt9ptESQZDZD",
    "next": "https://graph.facebook.com/v2.2/929160387114550/posts?limit=25&until=1369146970&__paging_token=enc_AdCieXqgrDhUuSOxSN0uL0TycYeSsvxt1d4VllIgcjhR1Y0ZA8cc1M1qaC09wYZAmpZA1rEZBUNNGEPXWDDHZAYIaVwRdo5SPZA1qyyQJlceRwom4pOwZDZD"
  }
}